%YAML 1.1
%TAG !u! tag:unity3d.com,2011:
--- !u!1 &2483399736961905348
GameObject:
  m_ObjectHideFlags: 0
  m_CorrespondingSourceObject: {fileID: 0}
  m_PrefabInstance: {fileID: 0}
  m_PrefabAsset: {fileID: 0}
  serializedVersion: 6
  m_Component:
  - component: {fileID: 2483399736961905349}
  - component: {fileID: 8130191238106757953}
  - component: {fileID: 3872132032205155004}
  m_Layer: 0
  m_Name: Pawn
  m_TagString: Untagged
  m_Icon: {fileID: 0}
  m_NavMeshLayer: 0
  m_StaticEditorFlags: 0
  m_IsActive: 1
--- !u!4 &2483399736961905349
Transform:
  m_ObjectHideFlags: 0
  m_CorrespondingSourceObject: {fileID: 0}
  m_PrefabInstance: {fileID: 0}
  m_PrefabAsset: {fileID: 0}
  m_GameObject: {fileID: 2483399736961905348}
  m_LocalRotation: {x: 0, y: 0, z: 0, w: 1}
  m_LocalPosition: {x: 0, y: 0, z: 0}
  m_LocalScale: {x: 1, y: 1, z: 1}
  m_Children:
  - {fileID: 2483399737680023537}
  m_Father: {fileID: 0}
  m_RootOrder: 0
  m_LocalEulerAnglesHint: {x: 0, y: 0, z: 0}
--- !u!114 &8130191238106757953
MonoBehaviour:
  m_ObjectHideFlags: 0
  m_CorrespondingSourceObject: {fileID: 0}
  m_PrefabInstance: {fileID: 0}
  m_PrefabAsset: {fileID: 0}
  m_GameObject: {fileID: 2483399736961905348}
  m_Enabled: 1
  m_EditorHideFlags: 0
  m_Script: {fileID: 11500000, guid: d09e2f7ef4349ca4ba97e278464e0c8f, type: 3}
  m_Name: 
  m_EditorClassIdentifier: 
  position: {x: 0, y: 0}
--- !u!64 &3872132032205155004
MeshCollider:
  m_ObjectHideFlags: 0
  m_CorrespondingSourceObject: {fileID: 0}
  m_PrefabInstance: {fileID: 0}
  m_PrefabAsset: {fileID: 0}
  m_GameObject: {fileID: 2483399736961905348}
  m_Material: {fileID: 0}
  m_IsTrigger: 1
  m_Enabled: 0
  serializedVersion: 4
  m_Convex: 1
  m_CookingOptions: 30
  m_Mesh: {fileID: 4300000, guid: dab6c0dea21994386a57acc588faa9e5, type: 3}
--- !u!1001 &2483399737679631729
PrefabInstance:
  m_ObjectHideFlags: 0
  serializedVersion: 2
  m_Modification:
    m_TransformParent: {fileID: 2483399736961905349}
    m_Modifications:
    - target: {fileID: 100000, guid: dab6c0dea21994386a57acc588faa9e5, type: 3}
      propertyPath: m_Name
      value: GPVFX_Pawn
      objectReference: {fileID: 0}
    - target: {fileID: 400000, guid: dab6c0dea21994386a57acc588faa9e5, type: 3}
      propertyPath: m_LocalPosition.x
      value: 0
      objectReference: {fileID: 0}
    - target: {fileID: 400000, guid: dab6c0dea21994386a57acc588faa9e5, type: 3}
      propertyPath: m_LocalPosition.y
      value: 0
      objectReference: {fileID: 0}
    - target: {fileID: 400000, guid: dab6c0dea21994386a57acc588faa9e5, type: 3}
      propertyPath: m_LocalPosition.z
      value: 0
      objectReference: {fileID: 0}
    - target: {fileID: 400000, guid: dab6c0dea21994386a57acc588faa9e5, type: 3}
      propertyPath: m_LocalRotation.x
      value: 0
      objectReference: {fileID: 0}
    - target: {fileID: 400000, guid: dab6c0dea21994386a57acc588faa9e5, type: 3}
      propertyPath: m_LocalRotation.y
      value: 0
      objectReference: {fileID: 0}
    - target: {fileID: 400000, guid: dab6c0dea21994386a57acc588faa9e5, type: 3}
      propertyPath: m_LocalRotation.z
      value: 0
      objectReference: {fileID: 0}
    - target: {fileID: 400000, guid: dab6c0dea21994386a57acc588faa9e5, type: 3}
      propertyPath: m_LocalRotation.w
      value: 1
      objectReference: {fileID: 0}
    - target: {fileID: 400000, guid: dab6c0dea21994386a57acc588faa9e5, type: 3}
      propertyPath: m_RootOrder
      value: 0
      objectReference: {fileID: 0}
    - target: {fileID: 400000, guid: dab6c0dea21994386a57acc588faa9e5, type: 3}
      propertyPath: m_LocalEulerAnglesHint.x
      value: 0
      objectReference: {fileID: 0}
    - target: {fileID: 400000, guid: dab6c0dea21994386a57acc588faa9e5, type: 3}
      propertyPath: m_LocalEulerAnglesHint.y
      value: 0
      objectReference: {fileID: 0}
    - target: {fileID: 400000, guid: dab6c0dea21994386a57acc588faa9e5, type: 3}
      propertyPath: m_LocalEulerAnglesHint.z
      value: 0
      objectReference: {fileID: 0}
    - target: {fileID: 400000, guid: dab6c0dea21994386a57acc588faa9e5, type: 3}
      propertyPath: m_LocalScale.x
      value: 0.8
      objectReference: {fileID: 0}
    - target: {fileID: 400000, guid: dab6c0dea21994386a57acc588faa9e5, type: 3}
      propertyPath: m_LocalScale.y
      value: 0.8
      objectReference: {fileID: 0}
    - target: {fileID: 400000, guid: dab6c0dea21994386a57acc588faa9e5, type: 3}
      propertyPath: m_LocalScale.z
      value: 0.8
      objectReference: {fileID: 0}
    - target: {fileID: 2300000, guid: dab6c0dea21994386a57acc588faa9e5, type: 3}
      propertyPath: m_Materials.Array.size
      value: 1
      objectReference: {fileID: 0}
    - target: {fileID: 2300000, guid: dab6c0dea21994386a57acc588faa9e5, type: 3}
      propertyPath: m_Materials.Array.data[0]
      value: 
      objectReference: {fileID: 2100000, guid: d09888fb380864d7d820ffed5c260deb, type: 2}
    - target: {fileID: 2300000, guid: dab6c0dea21994386a57acc588faa9e5, type: 3}
      propertyPath: m_Materials.Array.data[1]
      value: 
      objectReference: {fileID: 2100000, guid: ce80d7520e4604c6faaad086dc1a7590, type: 2}
    - target: {fileID: 2300000, guid: dab6c0dea21994386a57acc588faa9e5, type: 3}
      propertyPath: m_Enabled
      value: 1
      objectReference: {fileID: 0}
    m_RemovedComponents: []
  m_SourcePrefab: {fileID: 100100000, guid: dab6c0dea21994386a57acc588faa9e5, type: 3}
--- !u!4 &2483399737680023537 stripped
Transform:
  m_CorrespondingSourceObject: {fileID: 400000, guid: dab6c0dea21994386a57acc588faa9e5,
    type: 3}
  m_PrefabInstance: {fileID: 2483399737679631729}
  m_PrefabAsset: {fileID: 0}
